…
# Contruimos la llamada GET
res <- GET(url = "https://www.starbucks.com.mx/api/getStores",
           add_headers(headers,body = glue("[{crds},{radio}]") ))

sbcks <- as_tibble( fromJSON(content(res, 'text'), flatten = TRUE) )
sbcks
```

    ## # A tibble: 28 × 44
    ##    distance store.id store.name  store…¹ store…² store…³ store…⁴ store…⁵ store…⁶
    ##       <dbl> <chr>    <chr>       <lgl>   <chr>   <chr>   <lgl>   <lgl>   <chr>  
    ##  1    1821. 38450    MACROPLAZA… NA      38450   <NA>    NA      NA      MX     
    ##  2    3984. 38265    ENSENADA M… NA      38265   <NA>    NA      NA      MX     
    ##  3   73659. 38763    ROSARITO    NA      38763   <NA>    NA      NA      MX     
    ##  4   79774. 38412    MACROPLAZA… NA      38412   <NA>    NA      NA      MX     
    ##  5   81704. 38922    PLAZA PENI… NA      38922   ""      NA      NA      MX     
    ##  6   82593. 38779    RIO TIJUANA NA      38779   <NA>    NA      NA      MX     
    ##  7   83334. 38667    HIPODROMO … NA      38667   <NA>    NA      NA      MX     
    ##  8   83598. 38383    GALERIAS H… NA      38383   <NA>    NA      NA      MX     
    ##  9   84147. 38848    ALAMEDA OT… NA      38848   <NA>    NA      NA      MX     
    ## 10   84345. 38737    OTAY        NA      38737   <NA>    NA      NA      MX     
    ## # … with 18 more rows, 35 more variables: store.timeZoneInfo <lgl>,
    ## #   store.regularHours <lgl>, store.extendedHours <lgl>, store.currency <lgl>,
    ## #   store.financialInfo <chr>, store.region <lgl>, store.shippingCost <lgl>,
    ## #   store.operatingStatus.operating <lgl>,
    ## #   store.operatingStatus.openDate <chr>,
    ## #   store.operatingStatus.closeDate <lgl>, store.operatingStatus.status <chr>,
    ## #   store.operatingStatus.mopOperatingStatus <chr>, …
…
